{
  "info": {
    "_postman_id": "be1a126c-8e85-4f2d-a8e7-73b7249e03df",
    "name": "Phonetic_Remote",
    "schema": "https://schema.getpostman.com/json/collection/v2.0.0/collection.json"
  },
  "item": [
    {
      "name": "Generate Transcripts",
      "item": [
        {
          "name": "Transcriptions From Bucket",
          "event": [
            {
              "listen": "test",
              "script": {
                "id": "7eea1bd8-7ad0-4c5e-be0b-48fd320127ad",
                "exec": [
                  "// Verify the status code of the Endpoint\r",
                  "// set the expected status code\r",
                  "let ExpectedStatusCode = pm.iterationData.get(\"TranscriptionsStatus\");\r",
                  "\r",
                  "//Test the status code\r",
                  "pm.test(\"Status code should be \" + ExpectedStatusCode, function () {\r",
                  "\tpm.response.to.have.status(ExpectedStatusCode);\r",
                  "});\r",
                  "\r",
                  "//Set the file name to use in next response if status code 200\r",
                  "if(pm.response.code === 200){\r",
                  "\r",
                  "\t//1. parse response\r",
                  "\tlet transcriptionsCSVFileName = pm.response.text();\r",
                  "\tlet transcriptionsFileName = pm.response.text().replace(\"csv\", \"json\");\r",
                  "\t//2. Set the Environment Variable\r",
                  "\tpm.environment.set(\"transcriptionsFile\", transcriptionsFileName);\r",
                  "\tpm.environment.set(\"transcriptionsCSVFile\", transcriptionsCSVFileName);\r",
                  "\tconsole.log(\"Filename generated is: \" +pm.environment.get(\"transcriptionsFile\") );\r",
                  "\t\r",
                  "\r",
                  "}\r",
                  "\r",
                  "if(pm.response.code === 500 || pm.response.code === 400){\r",
                  "\r",
                  "\tpm.test(\"Json Body has Error\", function () {\r",
                  "\t\tvar jsonData = pm.response.json();\r",
                  "\t\tpm.expect(jsonData.error.message).to.eql(pm.iterationData.get(\"TranscriptionsMessage\"));\r",
                  "\t});\r",
                  "\r",
                  "}\r",
                  "\r",
                  "// This Endpoint generates a File that contains the transcripts"
                ],
                "type": "text/javascript"
              }
            },
            {
              "listen": "prerequest",
              "script": {
                "id": "37ae0e1f-4eff-49fb-916f-dd36691da60b",
                "exec": [
                  ""
                ],
                "type": "text/javascript"
              }
            }
          ],
          "_postman_id": "897aa303-fffe-4104-b785-f6ea8ee40285",
          "protocolProfileBehavior": {
            "disableBodyPruning": true,
            "disabledSystemHeaders": {}
          },
          "request": {
            "method": "POST",
            "header": [],
            "body": {
              "mode": "raw",
              "raw": "{\r\n    \"path\": \"{{path}}\",\r\n    \"config\": { \r\n        \"languageCode\": \"{{languageCode}}\"\r\n    }\r\n}",
              "options": {
                "raw": {
                  "language": "json"
                }
              }
            },
            "url": {
              "raw": "{{PSD_HOST}}/transcriptions/test-ch-voice-mvp/phonetic-discovery?key={{PSD_API_KEY}}",
              "host": [
                "{{PSD_HOST}}"
              ],
              "path": [
                "transcriptions",
                "test-ch-voice-mvp",
                "phonetic-discovery"
              ],
              "query": [
                {
                  "key": "key",
                  "value": "{{PSD_API_KEY}}"
                }
              ]
            }
          },
          "response": []
        }
      ],
      "_postman_id": "1828ffec-984c-46bc-bad7-969e6dfc1d82",
      "event": [
        {
          "listen": "prerequest",
          "script": {
            "id": "2418573d-15d7-4ca8-8e0b-cf3a01b493da",
            "type": "text/javascript",
            "exec": [
              ""
            ]
          }
        },
        {
          "listen": "test",
          "script": {
            "id": "e14facc6-4371-48f5-86e4-8bfa4076469d",
            "type": "text/javascript",
            "exec": [
              "if(pm.response.code === 500){",
              "\tpostman.setNextRequest(null);",
              "",
              "}"
            ]
          }
        }
      ]
    },
    {
      "name": "Generate Phonetics",
      "item": [
        {
          "name": "Phonetic Delta",
          "event": [
            {
              "listen": "test",
              "script": {
                "id": "c5061177-aa13-4e6e-9d99-1ddf9d0bcfce",
                "exec": [
                  "pm.test(\"Status code is 200\", function () {\r",
                  "\tpm.response.to.have.status(200);\r",
                  "});\r",
                  ""
                ],
                "type": "text/javascript"
              }
            }
          ],
          "_postman_id": "dda21a2a-9fde-4171-9b74-c4e87ea0ab54",
          "protocolProfileBehavior": {
            "disableBodyPruning": true
          },
          "request": {
            "method": "POST",
            "header": [],
            "body": {
              "mode": "raw",
              "raw": "{\r\n  \"filepath\": \"{{transcriptionsFile}}\",\r\n  \"local\": false\r\n}",
              "options": {
                "raw": {
                  "language": "json"
                }
              }
            },
            "url": {
              "raw": "{{PSD_HOST}}/phonetic-dictionary?key={{PSD_API_KEY}}",
              "host": [
                "{{PSD_HOST}}"
              ],
              "path": [
                "phonetic-dictionary"
              ],
              "query": [
                {
                  "key": "key",
                  "value": "{{PSD_API_KEY}}"
                }
              ]
            }
          },
          "response": []
        }
      ],
      "_postman_id": "33c7b636-ef62-4747-b9a7-1e190cbdb038",
      "event": [
        {
          "listen": "prerequest",
          "script": {
            "id": "284a6158-ae68-411d-bd9c-bcf59733094e",
            "type": "text/javascript",
            "exec": [
              ""
            ]
          }
        },
        {
          "listen": "test",
          "script": {
            "id": "0197be5c-631e-4b6a-af2e-3fb9b4c89a06",
            "type": "text/javascript",
            "exec": [
              "if(pm.response.code === 500){",
              "\tpostman.setNextRequest(null);",
              "",
              "}"
            ]
          }
        }
      ]
    },
    {
      "name": "WER",
      "item": [
        {
          "name": "WER from Dictionary",
          "event": [
            {
              "listen": "test",
              "script": {
                "id": "7991f8b4-df5b-4a2f-887e-bd9bb2502dc6",
                "exec": [
                  ""
                ],
                "type": "text/javascript"
              }
            }
          ],
          "_postman_id": "27e3cf50-ba86-4ff0-b02d-0786bfbb9b08",
          "protocolProfileBehavior": {
            "disableBodyPruning": true
          },
          "request": {
            "method": "POST",
            "header": [],
            "body": {
              "mode": "raw",
              "raw": "{\r\n    \"filepath\": \"{{transcriptionsFile}}\",\r\n    \"cleaned\": true\r\n}",
              "options": {
                "raw": {
                  "language": "json"
                }
              }
            },
            "url": {
              "raw": "{{PSD_HOST}}/wer/from-dictionary?key={{PSD_API_KEY}}",
              "host": [
                "{{PSD_HOST}}"
              ],
              "path": [
                "wer",
                "from-dictionary"
              ],
              "query": [
                {
                  "key": "key",
                  "value": "{{PSD_API_KEY}}"
                }
              ]
            }
          },
          "response": []
        },
        {
          "name": "WER from Dictionary clean default",
          "event": [
            {
              "listen": "test",
              "script": {
                "id": "51984d9f-15ae-4303-9132-9f873ad151ac",
                "exec": [
                  ""
                ],
                "type": "text/javascript"
              }
            }
          ],
          "_postman_id": "07465d81-9e8c-4026-b78d-8c8d52801f4f",
          "protocolProfileBehavior": {
            "disableBodyPruning": true
          },
          "request": {
            "method": "POST",
            "header": [],
            "body": {
              "mode": "raw",
              "raw": "{\r\n    \"filepath\": \"{{transcriptionsFile}}\"\r\n}",
              "options": {
                "raw": {
                  "language": "json"
                }
              }
            },
            "url": {
              "raw": "{{PSD_HOST}}/wer/from-dictionary?key={{PSD_API_KEY}}",
              "host": [
                "{{PSD_HOST}}"
              ],
              "path": [
                "wer",
                "from-dictionary"
              ],
              "query": [
                {
                  "key": "key",
                  "value": "{{PSD_API_KEY}}"
                }
              ]
            }
          },
          "response": []
        },
        {
          "name": "WER from Dictionary not cleaned",
          "event": [
            {
              "listen": "test",
              "script": {
                "id": "bea91453-753a-4c35-9ee1-87599c7934cf",
                "exec": [
                  ""
                ],
                "type": "text/javascript"
              }
            }
          ],
          "_postman_id": "0c38ff55-7e22-47cb-804b-1b2c1e53e802",
          "protocolProfileBehavior": {
            "disableBodyPruning": true
          },
          "request": {
            "method": "POST",
            "header": [],
            "body": {
              "mode": "raw",
              "raw": "{\r\n    \"filepath\": \"{{transcriptionsFile}}\",\r\n    \"cleaned\": false\r\n}",
              "options": {
                "raw": {
                  "language": "json"
                }
              }
            },
            "url": {
              "raw": "{{PSD_HOST}}/wer/from-dictionary?key={{PSD_API_KEY}}",
              "host": [
                "{{PSD_HOST}}"
              ],
              "path": [
                "wer",
                "from-dictionary"
              ],
              "query": [
                {
                  "key": "key",
                  "value": "{{PSD_API_KEY}}"
                }
              ]
            }
          },
          "response": []
        },
        {
          "name": "WER from CSV",
          "event": [
            {
              "listen": "test",
              "script": {
                "id": "38cd9c23-f650-4b2f-9587-2bd50ace2089",
                "exec": [
                  "pm.test(\"Status code is 200\", function () {\r",
                  "\tpm.response.to.have.status(200);\r",
                  "});\r",
                  "// test response message"
                ],
                "type": "text/javascript"
              }
            }
          ],
          "_postman_id": "a094ea12-f667-4ca6-be2a-fed14b60c8c8",
          "protocolProfileBehavior": {
            "disableBodyPruning": true
          },
          "request": {
            "method": "POST",
            "header": [],
            "body": {
              "mode": "raw",
              "raw": "{\r\n  \"filepath\": \"{{transcriptionsCSVFile}}\",\r\n  \"cleaned\": true,\r\n  \"local\": false\r\n}",
              "options": {
                "raw": {
                  "language": "json"
                }
              }
            },
            "url": {
              "raw": "{{PSD_HOST}}/wer/from-csv?key={{PSD_API_KEY}}",
              "host": [
                "{{PSD_HOST}}"
              ],
              "path": [
                "wer",
                "from-csv"
              ],
              "query": [
                {
                  "key": "key",
                  "value": "{{PSD_API_KEY}}"
                }
              ]
            }
          },
          "response": []
        },
        {
          "name": "WER from CSV not Cleaned",
          "event": [
            {
              "listen": "test",
              "script": {
                "id": "cbc0a97b-2607-403b-b62b-4da6ef1b240a",
                "exec": [
                  ""
                ],
                "type": "text/javascript"
              }
            }
          ],
          "_postman_id": "d00c77fb-0bb4-469c-b5c4-0a4abbc46ae0",
          "protocolProfileBehavior": {
            "disableBodyPruning": true
          },
          "request": {
            "method": "POST",
            "header": [],
            "body": {
              "mode": "raw",
              "raw": "{\r\n    \"filepath\": \"{{transcriptionsCSVFile}}\",\r\n    \"cleaned\": false,\r\n\t\"local\": false\r\n}",
              "options": {
                "raw": {
                  "language": "json"
                }
              }
            },
            "url": {
              "raw": "{{PSD_HOST}}/wer/from-csv?key={{PSD_API_KEY}}",
              "host": [
                "{{PSD_HOST}}"
              ],
              "path": [
                "wer",
                "from-csv"
              ],
              "query": [
                {
                  "key": "key",
                  "value": "{{PSD_API_KEY}}"
                }
              ]
            }
          },
          "response": []
        },
        {
          "name": "WER from CSV cleaned default",
          "event": [
            {
              "listen": "test",
              "script": {
                "id": "b2b8f36e-2ee3-412f-ad1f-d16a4b60cdc9",
                "exec": [
                  ""
                ],
                "type": "text/javascript"
              }
            }
          ],
          "_postman_id": "cf8fffe6-ed3b-4ee8-a2b5-051c03cdc3cb",
          "protocolProfileBehavior": {
            "disableBodyPruning": true
          },
          "request": {
            "method": "POST",
            "header": [],
            "body": {
              "mode": "raw",
              "raw": "{\r\n    \"filepath\": \"{{transcriptionsCSVFile}}\"\r\n\r\n}",
              "options": {
                "raw": {
                  "language": "json"
                }
              }
            },
            "url": {
              "raw": "{{PSD_HOST}}/wer/from-csv?key={{PSD_API_KEY}}",
              "host": [
                "{{PSD_HOST}}"
              ],
              "path": [
                "wer",
                "from-csv"
              ],
              "query": [
                {
                  "key": "key",
                  "value": "{{PSD_API_KEY}}"
                }
              ]
            }
          },
          "response": []
        }
      ],
      "_postman_id": "0d4c4804-70e7-4f22-a626-9763ac4c77a3",
      "event": [
        {
          "listen": "prerequest",
          "script": {
            "id": "029fb261-4332-40a3-8d66-b0c1c673f136",
            "type": "text/javascript",
            "exec": [
              ""
            ]
          }
        },
        {
          "listen": "test",
          "script": {
            "id": "1f55e90b-17a3-4f0a-81bb-4b0991c6157a",
            "type": "text/javascript",
            "exec": [
              "pm.test(\"Status code is 200\", function () {",
              "\tpm.response.to.have.status(200);",
              "})",
              "",
              "// Test response message",
              "//Word Error Rate(WER): 33.095238095238095 %",
              "pm.test(\"Body matches string\", function () {",
              "\t",
              "\tpm.expect(pm.response.text()).to.include('Word Error Rate (WER):');",
              "\t",
              "})"
            ]
          }
        }
      ]
    },
    {
      "name": "Generate Speech Context",
      "item": [
        {
          "name": "GenersateSpeechContext",
          "event": [
            {
              "listen": "test",
              "script": {
                "id": "94511b6e-6208-46fc-b28c-d83d5de79d31",
                "exec": [
                  "// test the phrases Array\r",
                  "pm.test(\"Test the Response\", function () {\r",
                  "\tvar jsonData = pm.response.json();\r",
                  "\tpm.expect(jsonData.phrases).not.equal(null);\r",
                  "});"
                ],
                "type": "text/javascript"
              }
            }
          ],
          "_postman_id": "f8aca1ba-7744-441c-9955-9142f0993879",
          "protocolProfileBehavior": {
            "disableBodyPruning": true
          },
          "request": {
            "method": "POST",
            "header": [],
            "body": {
              "mode": "raw",
              "raw": "{\r\n    \"filepath\": \"{{transcriptionsCSVFile}}\",\r\n    \"local\": false\r\n}",
              "options": {
                "raw": {
                  "language": "json"
                }
              }
            },
            "url": {
              "raw": "{{PSD_HOST}}/generateSpeechContexts?key={{PSD_API_KEY}}",
              "host": [
                "{{PSD_HOST}}"
              ],
              "path": [
                "generateSpeechContexts"
              ],
              "query": [
                {
                  "key": "key",
                  "value": "{{PSD_API_KEY}}"
                }
              ]
            }
          },
          "response": []
        }
      ],
      "_postman_id": "bb7b8bbc-ec02-4146-abd6-6396ee61a486",
      "event": [
        {
          "listen": "prerequest",
          "script": {
            "id": "a196e05c-1b02-4596-a4aa-2abf053f0878",
            "type": "text/javascript",
            "exec": [
              ""
            ]
          }
        },
        {
          "listen": "test",
          "script": {
            "id": "65ba96e3-eae4-4cec-b848-77066f22ac06",
            "type": "text/javascript",
            "exec": [
              "pm.test(\"Status code is 200\", function () {",
              "\tpm.response.to.have.status(200);",
              "}); ",
              ""
            ]
          }
        }
      ]
    },
    {
      "name": "NegativeTests",
      "item": [
        {
          "name": "Generate Phonetics",
          "item": [
            {
              "name": "Phonetic Delta Incorrect Filename",
              "event": [
                {
                  "listen": "test",
                  "script": {
                    "id": "3746871c-af45-4b9c-aaf9-62ca7c83302c",
                    "exec": [
                      "pm.test(\"Status code is 200\", function () {\r",
                      "\tpm.response.to.have.status(500);\r",
                      "});\r",
                      "//Test the response json to have fields\r",
                      "pm.test(\"Json Body has Error\", function () {\r",
                      "\t\tvar jsonData = pm.response.json();\r",
                      "\t\tpm.expect(jsonData.error.message).to.eql(\"'/incorrect.json' does not exist in GCS bucket\");\r",
                      "});"
                    ],
                    "type": "text/javascript"
                  }
                }
              ],
              "_postman_id": "0de3b609-1c7c-414a-a3a3-e7fb87d0f338",
              "protocolProfileBehavior": {
                "disableBodyPruning": true
              },
              "request": {
                "method": "POST",
                "header": [],
                "body": {
                  "mode": "raw",
                  "raw": "{\r\n  \"filepath\": \"/incorrect.json\",\r\n  \"local\": false\r\n}",
                  "options": {
                    "raw": {
                      "language": "json"
                    }
                  }
                },
                "url": {
                  "raw": "{{PSD_HOST}}/phonetic-dictionary?key={{PSD_API_KEY}}",
                  "host": [
                    "{{PSD_HOST}}"
                  ],
                  "path": [
                    "phonetic-dictionary"
                  ],
                  "query": [
                    {
                      "key": "key",
                      "value": "{{PSD_API_KEY}}"
                    }
                  ]
                }
              },
              "response": []
            }
          ],
          "_postman_id": "37f1b864-33f3-4ddc-954a-caffa41fe472",
          "event": [
            {
              "listen": "prerequest",
              "script": {
                "id": "72efe083-bed1-4824-ba5c-4097c10f1964",
                "type": "text/javascript",
                "exec": [
                  ""
                ]
              }
            },
            {
              "listen": "test",
              "script": {
                "id": "5b7c01af-5f2c-4fac-87ee-016e28ff2287",
                "type": "text/javascript",
                "exec": [
                  ""
                ]
              }
            }
          ],
          "_postman_isSubFolder": true
        },
        {
          "name": "WER",
          "item": [
            {
              "name": "WER from Dictionary Incorrect Filename",
              "event": [
                {
                  "listen": "test",
                  "script": {
                    "id": "4a5f5033-3edc-449f-a2d7-1c6956a2dbac",
                    "exec": [
                      "pm.test(\"Status code is 500\", function () {\r",
                      "\tpm.response.to.have.status(500);\r",
                      "});\r",
                      "\r",
                      "// Test Error message\r",
                      "pm.test(\"Json Body has Error\", function () {\r",
                      "\t\tvar jsonData = pm.response.json();\r",
                      "\t\tpm.expect(jsonData.error.message).to.eql(\"'/incorrectFilename.json' does not exist in GCS bucket\");\r",
                      "});"
                    ],
                    "type": "text/javascript"
                  }
                }
              ],
              "_postman_id": "277157a0-410b-4717-9acb-d6217da8265a",
              "protocolProfileBehavior": {
                "disableBodyPruning": true
              },
              "request": {
                "method": "POST",
                "header": [],
                "body": {
                  "mode": "raw",
                  "raw": "{\r\n    \"filepath\": \"/incorrectFilename.json\",\r\n    \"cleaned\": true\r\n}",
                  "options": {
                    "raw": {
                      "language": "json"
                    }
                  }
                },
                "url": {
                  "raw": "{{PSD_HOST}}/wer/from-dictionary?key={{PSD_API_KEY}}",
                  "host": [
                    "{{PSD_HOST}}"
                  ],
                  "path": [
                    "wer",
                    "from-dictionary"
                  ],
                  "query": [
                    {
                      "key": "key",
                      "value": "{{PSD_API_KEY}}"
                    }
                  ]
                }
              },
              "response": []
            },
            {
              "name": "WER from Dictionary Empty Filename",
              "event": [
                {
                  "listen": "test",
                  "script": {
                    "id": "228b5689-d6df-4ba9-9b67-60f9ce541f60",
                    "exec": [
                      "pm.test(\"Status code is 500\", function () {\r",
                      "\tpm.response.to.have.status(500);\r",
                      "});\r",
                      "\r",
                      "// Test Error message\r",
                      "pm.test(\"Json Body has Error\", function () {\r",
                      "\t\tvar jsonData = pm.response.json();\r",
                      "\t\tpm.expect(jsonData.error.message).to.eql(\"filepath is not defined\");\r",
                      "});"
                    ],
                    "type": "text/javascript"
                  }
                }
              ],
              "_postman_id": "2ee02420-a74a-4f5b-a6e0-daa5db79a040",
              "protocolProfileBehavior": {
                "disableBodyPruning": true
              },
              "request": {
                "method": "POST",
                "header": [],
                "body": {
                  "mode": "raw",
                  "raw": "{\r\n    \"filepath\": \"\",\r\n    \"cleaned\": true\r\n}",
                  "options": {
                    "raw": {
                      "language": "json"
                    }
                  }
                },
                "url": {
                  "raw": "{{PSD_HOST}}/wer/from-dictionary?key={{PSD_API_KEY}}",
                  "host": [
                    "{{PSD_HOST}}"
                  ],
                  "path": [
                    "wer",
                    "from-dictionary"
                  ],
                  "query": [
                    {
                      "key": "key",
                      "value": "{{PSD_API_KEY}}"
                    }
                  ]
                }
              },
              "response": []
            },
            {
              "name": "WER from CSV incorrect filename",
              "event": [
                {
                  "listen": "test",
                  "script": {
                    "id": "f29d98b0-7957-4d42-8b96-0f2907c672e5",
                    "exec": [
                      "pm.test(\"Status code is 500\", function () {\r",
                      "\tpm.response.to.have.status(500);\r",
                      "});\r",
                      "// test error message\r",
                      "pm.test(\"Json Body has Error\", function () {\r",
                      "\t\tvar jsonData = pm.response.json();\r",
                      "\t\tpm.expect(jsonData.error.message).to.eql(\"'/incorrectFilename.csv' does not exist in GCS bucket\");\r",
                      "});"
                    ],
                    "type": "text/javascript"
                  }
                }
              ],
              "_postman_id": "c5d0e858-54a2-42cf-a682-c5989b69a801",
              "protocolProfileBehavior": {
                "disableBodyPruning": true
              },
              "request": {
                "method": "POST",
                "header": [],
                "body": {
                  "mode": "raw",
                  "raw": "{\r\n    \"filepath\": \"/incorrectFilename.csv\",\r\n    \"cleaned\": true\r\n}\r\n",
                  "options": {
                    "raw": {
                      "language": "json"
                    }
                  }
                },
                "url": {
                  "raw": "{{PSD_HOST}}/wer/from-csv?key={{PSD_API_KEY}}",
                  "host": [
                    "{{PSD_HOST}}"
                  ],
                  "path": [
                    "wer",
                    "from-csv"
                  ],
                  "query": [
                    {
                      "key": "key",
                      "value": "{{PSD_API_KEY}}"
                    }
                  ]
                }
              },
              "response": []
            },
            {
              "name": "WER from CSV Empty filename",
              "event": [
                {
                  "listen": "test",
                  "script": {
                    "id": "2b298661-731a-44ed-81d8-9867995241d5",
                    "exec": [
                      "pm.test(\"Status code is 500\", function () {\r",
                      "\tpm.response.to.have.status(500);\r",
                      "});\r",
                      "// test error message\r",
                      "pm.test(\"Json Body has Error\", function () {\r",
                      "\t\tvar jsonData = pm.response.json();\r",
                      "\t\tpm.expect(jsonData.error.message).to.eql(\"filepath is not defined\");\r",
                      "});"
                    ],
                    "type": "text/javascript"
                  }
                }
              ],
              "_postman_id": "b0e38013-3b6c-4cac-b2f6-190ecf473b76",
              "protocolProfileBehavior": {
                "disableBodyPruning": true
              },
              "request": {
                "method": "POST",
                "header": [],
                "body": {
                  "mode": "raw",
                  "raw": "{\r\n    \"filepath\": \"\",\r\n    \"cleaned\": true\r\n}\r\n",
                  "options": {
                    "raw": {
                      "language": "json"
                    }
                  }
                },
                "url": {
                  "raw": "{{PSD_HOST}}/wer/from-csv?key={{PSD_API_KEY}}",
                  "host": [
                    "{{PSD_HOST}}"
                  ],
                  "path": [
                    "wer",
                    "from-csv"
                  ],
                  "query": [
                    {
                      "key": "key",
                      "value": "{{PSD_API_KEY}}"
                    }
                  ]
                }
              },
              "response": []
            }
          ],
          "_postman_id": "3aa0641e-e1c2-480d-b2bb-ed160a54b484",
          "event": [
            {
              "listen": "prerequest",
              "script": {
                "id": "319019f3-1c59-473e-9668-58afaef8c0e7",
                "type": "text/javascript",
                "exec": [
                  ""
                ]
              }
            },
            {
              "listen": "test",
              "script": {
                "id": "8c60312f-736b-452e-b1eb-9dd637f36f13",
                "type": "text/javascript",
                "exec": [
                  ""
                ]
              }
            }
          ],
          "_postman_isSubFolder": true
        },
        {
          "name": "Speech Context",
          "item": [
            {
              "name": "GenersateSpeechContext incorrect filename",
              "event": [
                {
                  "listen": "test",
                  "script": {
                    "id": "8d16dc30-7afc-4f23-9889-4321ad6a2ff5",
                    "exec": [
                      "pm.test(\"Status code is 500\", function () {\r",
                      "\tpm.response.to.have.status(500);\r",
                      "});\r",
                      "//Test error message\r",
                      "pm.test(\"Json Body has Error\", function () {\r",
                      "\t\tvar jsonData = pm.response.json();\r",
                      "\t\tpm.expect(jsonData.error.message).to.eql(\"'/incorrect.csv' does not exist in GCS bucket\");\r",
                      "});"
                    ],
                    "type": "text/javascript"
                  }
                }
              ],
              "_postman_id": "dcb436ee-d3cb-43bd-ae98-7c34f2e179bf",
              "protocolProfileBehavior": {
                "disableBodyPruning": true
              },
              "request": {
                "method": "POST",
                "header": [],
                "body": {
                  "mode": "raw",
                  "raw": "{\r\n    \"filepath\": \"/incorrect.csv\",\r\n    \"local\": false\r\n}",
                  "options": {
                    "raw": {
                      "language": "json"
                    }
                  }
                },
                "url": {
                  "raw": "{{PSD_HOST}}/generateSpeechContexts?key={{PSD_API_KEY}}",
                  "host": [
                    "{{PSD_HOST}}"
                  ],
                  "path": [
                    "generateSpeechContexts"
                  ],
                  "query": [
                    {
                      "key": "key",
                      "value": "{{PSD_API_KEY}}"
                    }
                  ]
                }
              },
              "response": []
            }
          ],
          "_postman_id": "cf5c2918-7dd0-4785-8997-fc3dcaa5eb9b",
          "event": [
            {
              "listen": "prerequest",
              "script": {
                "id": "a0a1b325-9c91-4d68-8bbc-1e51a14e4fcc",
                "type": "text/javascript",
                "exec": [
                  ""
                ]
              }
            },
            {
              "listen": "test",
              "script": {
                "id": "49634975-fe3b-44c7-8a9d-1445d6d6efe6",
                "type": "text/javascript",
                "exec": [
                  ""
                ]
              }
            }
          ],
          "_postman_isSubFolder": true
        }
      ],
      "_postman_id": "aab29284-b0fb-4036-bf73-f1d3a9ea43d2"
    }
  ]
}