{
	"id": "54b00720-7d90-41a8-bfcb-50451cf7de4e",
	"name": "REMOTE",
	"values": [
		{
			"key": "PSD_HOST",
			"value": "https://phonetic-discovery-dot-test-ch-voice-mvp.uc.r.appspot.com/",
			"enabled": true
		},
		{
			"key": "transcriptionsFile",
			"value": "",
			"enabled": true
		},
		{
			"key": "transcriptionsCSVFile",
			"value": "",
			"enabled": true
		},
		{
			"key": "PSD_API_KEY",
			"value": "AIzaSyBGIELxmswVU9QvRJO9rpsEk4sRuuSXetY",
			"enabled": true
		}
	],
	"_postman_variable_scope": "environment",
	"_postman_exported_at": "2021-06-02T19:32:47.116Z",
	"_postman_exported_using": "Postman/8.5.1"
}